{
  "project_info": {
    "project_number": "1068462562977",
    "firebase_url": "https://fir-example-59905.firebaseio.com",
    "project_id": "fir-example-59905",
    "storage_bucket": "fir-example-59905.appspot.com"
  },
  "client": [
    {
      "client_info": {
        "mobilesdk_app_id": "1:1068462562977:android:a59f59ef0460ad3e",
        "android_client_info": {
          "package_name": "firabaseex.benenesyildirim.com.firebaseex"
        }
      },
      "oauth_client": [
        {
          "client_id": "1068462562977-ms3k90nh6bjvaj89on784r1ke9t7jndb.apps.googleusercontent.com",
          "client_type": 3
        }
      ],
      "api_key": [
        {
          "current_key": "AIzaSyDySXg5ux3FWhE366k-ZX3QXgQuenQCdQs"
        }
      ],
      "services": {
        "analytics_service": {
          "status": 1
        },
        "appinvite_service": {
          "status": 1,
          "other_platform_oauth_client": []
        },
        "ads_service": {
          "status": 2
        }
      }
    }
  ],
  "configuration_version": "1"
}